module nvr

go 1.15

require (
	github.com/davecgh/go-spew v1.1.1 // indirect
	github.com/fsnotify/fsnotify v1.4.9
	github.com/gogo/protobuf v1.3.1
	github.com/golang/protobuf v1.4.3 // indirect
	github.com/gorilla/websocket v1.4.2
	github.com/kr/pretty v0.1.0 // indirect
	github.com/shirou/gopsutil/v3 v3.21.4
	golang.org/x/crypto v0.0.0-20210220033148-5ea612d1eb83
	golang.org/x/net v0.0.0-20201110031124-69a78807bb2b // indirect
	golang.org/x/xerrors v0.0.0-20200804184101-5ec99f83aff1 // indirect
	google.golang.org/genproto v0.0.0-20201119123407-9b1e624d6bc4 // indirect
	google.golang.org/grpc v1.38.0
	gopkg.in/check.v1 v1.0.0-20180628173108-788fd7840127 // indirect
	gopkg.in/yaml.v2 v2.2.2
)
